﻿<?xml version="1.0" encoding="utf-8"?>
<svg version="1.1" xmlns:xlink="http://www.w3.org/1999/xlink" width="1920px" height="631px" xmlns="http://www.w3.org/2000/svg">
  <g transform="matrix(1 0 0 1 0 -66 )">
    <path d="M 0 66  L 1920 66  L 1920 697  L 0 697  L 0 66  " fill-rule="nonzero" fill="#cccccc" stroke="none" />
    <path d="M 44 110  L 1876 110  L 1876 653  L 44 653  L 44 110  " fill-rule="nonzero" fill="#ffffff" stroke="none" />
    <path d="M 1045.725 255.3  C 1019.223 255.3  998.4 234.477  998.4 207.975  C 998.4 181.473  1019.223 160.65  1045.725 160.65  C 1072.227 160.65  1093.05 181.473  1093.05 207.975  C 1093.05 234.477  1072.227 255.3  1045.725 255.3  " fill-rule="nonzero" fill="#cccccc" stroke="none" />
    <path d="M 60 637  L 60 355.95  L 510 228.2  L 1140 536.2371875  L 1500 304.85  L 1860 536.2371875  L 1860 637  L 60 637  " fill-rule="nonzero" fill="#169bd5" stroke="none" />
  </g>
</svg>