﻿<?xml version="1.0" encoding="utf-8"?>
<svg version="1.1" xmlns:xlink="http://www.w3.org/1999/xlink" width="4px" height="5px" xmlns="http://www.w3.org/2000/svg">
  <g transform="matrix(1 0 0 1 -247 -679 )">
    <path d="M 248.5 680  L 248.5 682  " stroke-width="2" stroke="#009cd9" fill="none" />
  </g>
</svg>