﻿<?xml version="1.0" encoding="utf-8"?>
<svg version="1.1" xmlns:xlink="http://www.w3.org/1999/xlink" width="62px" height="67px" xmlns="http://www.w3.org/2000/svg">
  <defs>
    <linearGradient gradientUnits="userSpaceOnUse" x1="31" y1="0" x2="31" y2="67" id="LinearGradient46">
      <stop id="Stop47" stop-color="#ffffff" offset="0" />
      <stop id="Stop48" stop-color="#f2f2f2" offset="0" />
      <stop id="Stop49" stop-color="#e4e4e4" offset="1" />
      <stop id="Stop50" stop-color="#ffffff" offset="1" />
    </linearGradient>
  </defs>
  <g transform="matrix(1 0 0 1 -385 -1312 )">
    <path d="M 60.8697916666667 1.12740384615385  C 61.6232638888889 1.8790064102564  62 2.79166666666666  62 3.86538461538462  L 62 48.9615384615385  C 62 50.3036858974359  61.5425347222222 51.4981971153846  60.6276041666667 52.5450721153846  C 59.7126736111111 53.5919471153846  58.5555555555556 54.4039463141026  57.15625 54.9810697115385  C 55.7569444444444 55.5581931089744  54.3643663194444 55.9876802884615  52.978515625 56.26953125  C 51.5926649305556 56.5513822115385  50.2942708333333 56.6923076923077  49.0833333333333 56.6923076923077  C 47.8723958333333 56.6923076923077  46.5740017361111 56.5513822115385  45.1881510416667 56.26953125  C 43.8023003472222 55.9876802884615  42.4097222222222 55.5581931089744  41.0104166666667 54.9810697115385  C 39.6111111111111 54.4039463141026  38.4539930555556 53.5919471153846  37.5390625 52.5450721153846  C 36.6241319444444 51.4981971153846  36.1666666666667 50.3036858974359  36.1666666666667 48.9615384615385  C 36.1666666666667 47.619391025641  36.6241319444444 46.4248798076923  37.5390625 45.3780048076923  C 38.4539930555556 44.3311298076923  39.6111111111111 43.5191306089744  41.0104166666667 42.9420072115385  C 42.4097222222222 42.3648838141026  43.8023003472222 41.9353966346154  45.1881510416667 41.6535456730769  C 46.5740017361111 41.3716947115385  47.8723958333333 41.2307692307692  49.0833333333333 41.2307692307692  C 51.9088541666667 41.2307692307692  54.4921875 41.7542067307692  56 42.8010817307692  L 56 21.1790865384615  L 26 30.7217548076923  L 26 59.2692307692308  C 25.8333333333333 60.6113782051282  25.3758680555556 61.8058894230769  24.4609375 62.8527644230769  C 23.5460069444444 63.8996394230769  22.3888888888889 64.7116386217949  20.9895833333333 65.2887620192308  C 19.5902777777778 65.8658854166667  18.1976996527778 66.2953725961539  16.8118489583333 66.5772235576923  C 15.4259982638889 66.8590745192308  14.1276041666667 67  12.9166666666667 67  C 11.7057291666667 67  10.4073350694444 66.8590745192308  9.021484375 66.5772235576923  C 7.63563368055556 66.2953725961539  6.24305555555556 65.8658854166667  4.84375 65.2887620192308  C 3.44444444444444 64.7116386217949  2.28732638888889 63.8996394230769  1.37239583333333 62.8527644230769  C 0.457465277777778 61.8058894230769  0 60.6113782051282  0 59.2692307692308  C 0 57.9270833333333  0.457465277777778 56.7325721153846  1.37239583333333 55.6856971153846  C 2.28732638888889 54.6388221153846  3.44444444444444 53.8268229166667  4.84375 53.2496995192308  C 6.24305555555556 52.6725761217949  7.63563368055556 52.2430889423077  9.021484375 51.9612379807692  C 10.4073350694444 51.6793870192308  11.7057291666667 51.5384615384615  12.9166666666667 51.5384615384615  C 15.7421875 51.5384615384615  18.3255208333333 52.0618990384615  21 53.1087740384615  L 21 14.1730769230769  C 20.6666666666667 13.3409455128205  20.9223090277778 12.5826322115385  21.43359375 11.8981370192308  C 21.9448784722222 11.2136418269231  22.6041666666667 10.7371794871795  23.4114583333333 10.46875  L 56.9947916666667 0.161057692307692  C 57.3177083333333 0.0536858974358972  57.6944444444444 0  58.125 0  C 59.2013888888889 0  60.1163194444444 0.375801282051281  60.8697916666667 1.12740384615385  Z " fill-rule="nonzero" fill="url(#LinearGradient46)" stroke="none" transform="matrix(1 0 0 1 385 1312 )" />
  </g>
</svg>