﻿<?xml version="1.0" encoding="utf-8"?>
<svg version="1.1" xmlns:xlink="http://www.w3.org/1999/xlink" width="29px" height="26px" xmlns="http://www.w3.org/2000/svg">
  <g transform="matrix(1 0 0 1 -258 -254 )">
    <path d="M 21.9765625 23.51171875  C 22.1973157051282 23.2973090277778  22.3076923076923 23.0434027777778  22.3076923076923 22.75  C 22.3076923076923 22.4565972222222  22.1973157051282 22.2026909722222  21.9765625 21.98828125  C 21.7558092948718 21.7738715277778  21.494391025641 21.6666666666667  21.1923076923077 21.6666666666667  C 20.8902243589744 21.6666666666667  20.6288060897436 21.7738715277778  20.4080528846154 21.98828125  C 20.1872996794872 22.2026909722222  20.0769230769231 22.4565972222222  20.0769230769231 22.75  C 20.0769230769231 23.0434027777778  20.1872996794872 23.2973090277778  20.4080528846154 23.51171875  C 20.6288060897436 23.7261284722222  20.8902243589744 23.8333333333333  21.1923076923077 23.8333333333333  C 21.494391025641 23.8333333333333  21.7558092948718 23.7261284722222  21.9765625 23.51171875  Z M 26.4381009615385 23.51171875  C 26.6588541666667 23.2973090277778  26.7692307692308 23.0434027777778  26.7692307692308 22.75  C 26.7692307692308 22.4565972222222  26.6588541666667 22.2026909722222  26.4381009615385 21.98828125  C 26.2173477564103 21.7738715277778  25.9559294871795 21.6666666666667  25.6538461538462 21.6666666666667  C 25.3517628205128 21.6666666666667  25.0903445512821 21.7738715277778  24.8695913461538 21.98828125  C 24.6488381410256 22.2026909722222  24.5384615384615 22.4565972222222  24.5384615384615 22.75  C 24.5384615384615 23.0434027777778  24.6488381410256 23.2973090277778  24.8695913461538 23.51171875  C 25.0903445512821 23.7261284722222  25.3517628205128 23.8333333333333  25.6538461538462 23.8333333333333  C 25.9559294871795 23.8333333333333  26.2173477564103 23.7261284722222  26.4381009615385 23.51171875  Z M 28.5120192307692 17.8072916666667  C 28.8373397435897 18.1232638888889  29 18.5069444444444  29 18.9583333333333  L 29 24.375  C 29 24.8263888888889  28.8373397435897 25.2100694444444  28.5120192307692 25.5260416666667  C 28.1866987179487 25.8420138888889  27.7916666666667 26  27.3269230769231 26  L 1.67307692307692 26  C 1.20833333333333 26  0.813301282051282 25.8420138888889  0.487980769230769 25.5260416666667  C 0.162660256410256 25.2100694444444  0 24.8263888888889  0 24.375  L 0 18.9583333333333  C 0 18.5069444444444  0.162660256410256 18.1232638888889  0.487980769230769 17.8072916666667  C 0.813301282051282 17.4913194444444  1.20833333333333 17.3333333333333  1.67307692307692 17.3333333333333  L 9.77704326923077 17.3333333333333  L 12.1298076923077 19.6354166666667  C 12.8036858974359 20.2673611111111  13.59375 20.5833333333333  14.5 20.5833333333333  C 15.40625 20.5833333333333  16.1963141025641 20.2673611111111  16.8701923076923 19.6354166666667  L 19.2403846153846 17.3333333333333  L 27.3269230769231 17.3333333333333  C 27.7916666666667 17.3333333333333  28.1866987179487 17.4913194444444  28.5120192307692 17.8072916666667  Z M 22.3076923076923 8.66666666666667  C 22.7956730769231 8.66666666666667  23.138421474359 8.88671875  23.3359375 9.32682291666667  C 23.533453525641 9.78949652777778  23.4521233974359 10.1844618055556  23.0919471153846 10.51171875  L 15.2842548076923 18.0950520833333  C 15.0751201923077 18.3094618055556  14.8137019230769 18.4166666666667  14.5 18.4166666666667  C 14.1862980769231 18.4166666666667  13.9248798076923 18.3094618055556  13.7157451923077 18.0950520833333  L 5.90805288461538 10.51171875  C 5.5478766025641 10.1844618055556  5.46654647435898 9.78949652777778  5.6640625 9.32682291666667  C 5.86157852564103 8.88671875  6.20432692307692 8.66666666666667  6.69230769230769 8.66666666666667  L 11.1538461538462 8.66666666666667  L 11.1538461538462 1.08333333333333  C 11.1538461538462 0.789930555555552  11.2642227564103 0.536024305555552  11.4849759615385 0.321614583333332  C 11.7057291666667 0.107204861111113  11.9671474358974 0  12.2692307692308 0  L 16.7307692307692 0  C 17.0328525641026 0  17.2942708333333 0.107204861111113  17.5150240384615 0.321614583333332  C 17.7357772435897 0.536024305555552  17.8461538461538 0.789930555555552  17.8461538461538 1.08333333333333  L 17.8461538461538 8.66666666666667  L 22.3076923076923 8.66666666666667  Z " fill-rule="nonzero" fill="#f2f3f5" stroke="none" transform="matrix(1 0 0 1 258 254 )" />
  </g>
</svg>