﻿<?xml version="1.0" encoding="utf-8"?>
<svg version="1.1" xmlns:xlink="http://www.w3.org/1999/xlink" width="39px" height="42px" xmlns="http://www.w3.org/2000/svg">
  <g transform="matrix(1 0 0 1 -1312 -493 )">
    <path d="M 25.33984375 26.8515625  C 26.8971354166667 25.2838541666667  28.7421875 24.5  30.875 24.5  C 33.1263020833333 24.5  35.0432942708333 25.3522135416667  36.6259765625 27.056640625  C 38.2086588541667 28.7610677083333  39 30.8255208333333  39 33.25  C 39 35.6744791666667  38.2086588541667 37.7389322916667  36.6259765625 39.443359375  C 35.0432942708333 41.1477864583333  33.1263020833333 42  30.875 42  C 28.6236979166667 42  26.7067057291667 41.1477864583333  25.1240234375 39.443359375  C 23.5413411458333 37.7389322916667  22.75 35.6744791666667  22.75 33.25  C 22.75 33.03125  22.7669270833333 32.7213541666667  22.80078125 32.3203125  L 13.66015625 27.3984375  C 12.1028645833333 28.9661458333333  10.2578125 29.75  8.125 29.75  C 5.87369791666667 29.75  3.95670572916667 28.8977864583333  2.3740234375 27.193359375  C 0.791341145833333 25.4889322916667  0 23.4244791666667  0 21  C 0 18.5755208333333  0.791341145833333 16.5110677083333  2.3740234375 14.806640625  C 3.95670572916667 13.1022135416667  5.87369791666667 12.25  8.125 12.25  C 10.2578125 12.25  12.1028645833333 13.0338541666667  13.66015625 14.6015625  L 22.80078125 9.6796875  C 22.7669270833333 9.27864583333333  22.75 8.96875  22.75 8.75  C 22.75 6.32552083333333  23.5413411458333 4.26106770833333  25.1240234375 2.556640625  C 26.7067057291667 0.852213541666664  28.6236979166667 0  30.875 0  C 33.1263020833333 0  35.0432942708333 0.852213541666664  36.6259765625 2.556640625  C 38.2086588541667 4.26106770833333  39 6.32552083333333  39 8.75  C 39 11.1744791666667  38.2086588541667 13.2389322916667  36.6259765625 14.943359375  C 35.0432942708333 16.6477864583333  33.1263020833333 17.5  30.875 17.5  C 28.7421875 17.5  26.8971354166667 16.7161458333333  25.33984375 15.1484375  L 16.19921875 20.0703125  C 16.2330729166667 20.4713541666667  16.25 20.78125  16.25 21  C 16.25 21.21875  16.2330729166667 21.5286458333333  16.19921875 21.9296875  L 25.33984375 26.8515625  Z " fill-rule="nonzero" fill="#f2f3f5" stroke="none" transform="matrix(1 0 0 1 1312 493 )" />
  </g>
</svg>