﻿<?xml version="1.0" encoding="utf-8"?>
<svg version="1.1" xmlns:xlink="http://www.w3.org/1999/xlink" width="101px" height="102px" xmlns="http://www.w3.org/2000/svg">
  <g transform="matrix(1 0 0 1 0 -326 )">
    <path d="M 0 326  L 101 326  L 101 428  L 0 428  L 0 326  " fill-rule="nonzero" fill="#cccccc" stroke="none" />
    <path d="M 7 333  L 94 333  L 94 421  L 7 421  L 7 333  " fill-rule="nonzero" fill="#ffffff" stroke="none" />
    <path d="M 60.095 356.45  C 55.853 356.45  52.52 353.117  52.52 348.875  C 52.52 344.633  55.853 341.3  60.095 341.3  C 64.337 341.3  67.67 344.633  67.67 348.875  C 67.67 353.117  64.337 356.45  60.095 356.45  " fill-rule="nonzero" fill="#cccccc" stroke="none" />
    <path d="M 10 419  L 10 373.35  L 30.5 352.6  L 59.2 369.2  L 75.6 365.05  L 92 369.2  L 92 419  L 10 419  " fill-rule="nonzero" fill="#169bd5" stroke="none" />
  </g>
</svg>