﻿<?xml version="1.0" encoding="utf-8"?>
<svg version="1.1" xmlns:xlink="http://www.w3.org/1999/xlink" width="50px" height="47px" xmlns="http://www.w3.org/2000/svg">
  <g transform="matrix(1 0 0 1 -1248 -488 )">
    <path d="M 37.890625 42.501953125  C 38.271233974359 42.1143663194444  38.4615384615385 41.6553819444444  38.4615384615385 41.125  C 38.4615384615385 40.5946180555556  38.271233974359 40.1356336805556  37.890625 39.748046875  C 37.510016025641 39.3604600694444  37.0592948717949 39.1666666666667  36.5384615384615 39.1666666666667  C 36.0176282051282 39.1666666666667  35.5669070512821 39.3604600694444  35.1862980769231 39.748046875  C 34.8056891025641 40.1356336805556  34.6153846153846 40.5946180555556  34.6153846153846 41.125  C 34.6153846153846 41.6553819444444  34.8056891025641 42.1143663194444  35.1862980769231 42.501953125  C 35.5669070512821 42.8895399305556  36.0176282051282 43.0833333333333  36.5384615384615 43.0833333333333  C 37.0592948717949 43.0833333333333  37.510016025641 42.8895399305556  37.890625 42.501953125  Z M 45.5829326923077 42.501953125  C 45.9635416666667 42.1143663194444  46.1538461538462 41.6553819444444  46.1538461538462 41.125  C 46.1538461538462 40.5946180555556  45.9635416666667 40.1356336805556  45.5829326923077 39.748046875  C 45.2023237179487 39.3604600694444  44.7516025641026 39.1666666666667  44.2307692307692 39.1666666666667  C 43.7099358974359 39.1666666666667  43.2592147435897 39.3604600694444  42.8786057692308 39.748046875  C 42.4979967948718 40.1356336805556  42.3076923076923 40.5946180555556  42.3076923076923 41.125  C 42.3076923076923 41.6553819444444  42.4979967948718 42.1143663194444  42.8786057692308 42.501953125  C 43.2592147435897 42.8895399305556  43.7099358974359 43.0833333333333  44.2307692307692 43.0833333333333  C 44.7516025641026 43.0833333333333  45.2023237179487 42.8895399305556  45.5829326923077 42.501953125  Z M 49.1586538461538 32.1901041666667  C 49.7195512820513 32.7612847222222  50 33.4548611111111  50 34.2708333333333  L 50 44.0625  C 50 44.8784722222222  49.7195512820513 45.5720486111111  49.1586538461538 46.1432291666667  C 48.5977564102564 46.7144097222222  47.9166666666667 47  47.1153846153846 47  L 2.88461538461538 47  C 2.08333333333333 47  1.40224358974359 46.7144097222222  0.841346153846154 46.1432291666667  C 0.280448717948718 45.5720486111111  0 44.8784722222222  0 44.0625  L 0 34.2708333333333  C 0 33.4548611111111  0.280448717948718 32.7612847222222  0.841346153846154 32.1901041666667  C 1.40224358974359 31.6189236111111  2.08333333333333 31.3333333333333  2.88461538461538 31  L 16.8569711538462 31  L 20.9134615384615 35.4947916666667  C 22.0753205128205 36.6371527777778  23.4375 37.2083333333333  25 37.2083333333333  C 26.5625 37.2083333333333  27.9246794871795 36.6371527777778  29.0865384615385 35.4947916666667  L 33.1730769230769 31  L 47.1153846153846 31  C 47.9166666666667 31.3333333333333  48.5977564102564 31.6189236111111  49.1586538461538 32.1901041666667  Z M 38.4615384615385 15.6666666666667  C 39.3028846153846 15.6666666666667  39.8938301282051 16.064453125  40.234375 16.8600260416667  C 40.5749198717949 17.6963975694444  40.4346955128205 18.4103732638889  39.8137019230769 19.001953125  L 26.3521634615385 32.7102864583333  C 25.9915865384615 33.0978732638889  25.5408653846154 33.2916666666667  25 33.2916666666667  C 24.4591346153846 33.2916666666667  24.0084134615385 33.0978732638889  23.6478365384615 32.7102864583333  L 10.1862980769231 19.001953125  C 9.56530448717949 18.4103732638889  9.42508012820513 17.6963975694444  9.765625 16.8600260416667  C 10.1061698717949 16.064453125  10.6971153846154 15.6666666666667  11.5384615384615 15.6666666666667  L 20 15.6666666666667  L 20 1.95833333333333  C 19.2307692307692 1.42795138888888  19.4210737179487 0.968967013888883  19.8016826923077 0.581380208333332  C 20.1822916666667 0.193793402777781  20.6330128205128 0  21.1538461538462 0  L 28.8461538461538 0  C 29.3669871794872 0  29.8177083333333 0.193793402777781  30.1983173076923 0.581380208333332  C 30.5789262820513 0.968967013888883  30.7692307692308 1.42795138888888  30 1.95833333333333  L 30 15.6666666666667  L 38.4615384615385 15.6666666666667  Z " fill-rule="nonzero" fill="#f2f3f5" stroke="none" transform="matrix(1 0 0 1 1248 488 )" />
  </g>
</svg>