﻿<?xml version="1.0" encoding="utf-8"?>
<svg version="1.1" xmlns:xlink="http://www.w3.org/1999/xlink" width="245px" height="246px" xmlns="http://www.w3.org/2000/svg">
  <g transform="matrix(1 0 0 1 -513 -506 )">
    <path d="M 513 506  L 758 506  L 758 752  L 513 752  L 513 506  " fill-rule="nonzero" fill="#cccccc" stroke="none" />
    <path d="M 530 523  L 741 523  L 741 735  L 530 735  L 530 523  " fill-rule="nonzero" fill="#ffffff" stroke="none" />
    <path d="M 658.775 579.65  C 648.485 579.65  640.4 571.565  640.4 561.275  C 640.4 550.985  648.485 542.9  658.775 542.9  C 669.065 542.9  677.15 550.985  677.15 561.275  C 677.15 571.565  669.065 579.65  658.775 579.65  " fill-rule="nonzero" fill="#cccccc" stroke="none" />
    <path d="M 536 729  L 536 619  L 585.75 569  L 655.4 609  L 695.2 599  L 735 609  L 735 729  L 536 729  " fill-rule="nonzero" fill="#169bd5" stroke="none" />
  </g>
</svg>