﻿<?xml version="1.0" encoding="utf-8"?>
<svg version="1.1" xmlns:xlink="http://www.w3.org/1999/xlink" width="67px" height="62px" xmlns="http://www.w3.org/2000/svg">
  <g transform="matrix(1 0 0 1 -534 -292 )">
    <path d="M 534 292  L 601 292  L 601 354  L 534 354  L 534 292  " fill-rule="nonzero" fill="#cccccc" stroke="none" />
    <path d="M 538 296  L 597 296  L 597 350  L 538 350  L 538 296  " fill-rule="nonzero" fill="#ffffff" stroke="none" />
    <path d="M 573.49 310.6  C 570.886 310.6  568.84 308.554  568.84 305.95  C 568.84 303.346  570.886 301.3  573.49 301.3  C 576.094 301.3  578.14 303.346  578.14 305.95  C 578.14 308.554  576.094 310.6  573.49 310.6  " fill-rule="nonzero" fill="#cccccc" stroke="none" />
    <path d="M 540 349  L 540 320.95  L 554 308.2  L 573.6 320.683582089552  L 584.8 315.85  L 596 320.683582089552  L 596 349  L 540 349  " fill-rule="nonzero" fill="#169bd5" stroke="none" />
  </g>
</svg>