﻿<?xml version="1.0" encoding="utf-8"?>
<svg version="1.1" xmlns:xlink="http://www.w3.org/1999/xlink" width="245px" height="246px" xmlns="http://www.w3.org/2000/svg">
  <g transform="matrix(1 0 0 1 -513 -548 )">
    <path d="M 513 548  L 758 548  L 758 794  L 513 794  L 513 548  " fill-rule="nonzero" fill="#cccccc" stroke="none" />
    <path d="M 530 565  L 741 565  L 741 777  L 530 777  L 530 565  " fill-rule="nonzero" fill="#ffffff" stroke="none" />
    <path d="M 658.775 621.65  C 648.485 621.65  640.4 613.565  640.4 603.275  C 640.4 592.985  648.485 584.9  658.775 584.9  C 669.065 584.9  677.15 592.985  677.15 603.275  C 677.15 613.565  669.065 621.65  658.775 621.65  " fill-rule="nonzero" fill="#cccccc" stroke="none" />
    <path d="M 536 771  L 536 661  L 585.75 611  L 655.4 651  L 695.2 641  L 735 651  L 735 771  L 536 771  " fill-rule="nonzero" fill="#169bd5" stroke="none" />
  </g>
</svg>