﻿<?xml version="1.0" encoding="utf-8"?>
<svg version="1.1" xmlns:xlink="http://www.w3.org/1999/xlink" width="239px" height="297px" xmlns="http://www.w3.org/2000/svg">
  <g transform="matrix(1 0 0 1 -20 -145 )">
    <path d="M 20 145  L 259 145  L 259 442  L 20 442  L 20 145  " fill-rule="nonzero" fill="#cccccc" stroke="none" />
    <path d="M 37 162  L 242 162  L 242 425  L 37 425  L 37 162  " fill-rule="nonzero" fill="#ffffff" stroke="none" />
    <path d="M 162.205 225.4  C 152.167 225.4  144.28 217.513  144.28 207.475  C 144.28 197.437  152.167 189.55  162.205 189.55  C 172.243 189.55  180.13 197.437  180.13 207.475  C 180.13 217.513  172.243 225.4  162.205 225.4  " fill-rule="nonzero" fill="#cccccc" stroke="none" />
    <path d="M 43 419  L 43 280.95  L 91.25 218.2  L 158.8 268.4  L 197.4 255.85  L 236 268.4  L 236 419  L 43 419  " fill-rule="nonzero" fill="#169bd5" stroke="none" />
  </g>
</svg>