﻿<?xml version="1.0" encoding="utf-8"?>
<svg version="1.1" xmlns:xlink="http://www.w3.org/1999/xlink" width="67px" height="62px" xmlns="http://www.w3.org/2000/svg">
  <g transform="matrix(1 0 0 1 -504 -349 )">
    <path d="M 504 349  L 571 349  L 571 411  L 504 411  L 504 349  " fill-rule="nonzero" fill="#cccccc" stroke="none" />
    <path d="M 508 353  L 567 353  L 567 407  L 508 407  L 508 353  " fill-rule="nonzero" fill="#ffffff" stroke="none" />
    <path d="M 543.49 367.6  C 540.886 367.6  538.84 365.554  538.84 362.95  C 538.84 360.346  540.886 358.3  543.49 358.3  C 546.094 358.3  548.14 360.346  548.14 362.95  C 548.14 365.554  546.094 367.6  543.49 367.6  " fill-rule="nonzero" fill="#cccccc" stroke="none" />
    <path d="M 510 406  L 510 377.95  L 524 365.2  L 543.6 377.683582089552  L 554.8 372.85  L 566 377.683582089552  L 566 406  L 510 406  " fill-rule="nonzero" fill="#169bd5" stroke="none" />
  </g>
</svg>