﻿<?xml version="1.0" encoding="utf-8"?>
<svg version="1.1" xmlns:xlink="http://www.w3.org/1999/xlink" width="40px" height="40px" xmlns="http://www.w3.org/2000/svg">
  <g transform="matrix(1 0 0 1 -1241 -503 )">
    <path d="M 30.3125 36.171875  C 30.6169871794872 35.8420138888889  30.7692307692308 35.4513888888889  30.7692307692308 35  C 30.7692307692308 34.5486111111111  30.6169871794872 34.1579861111111  30.3125 33.828125  C 30.0080128205128 33.4982638888889  29.6474358974359 33.3333333333333  29.2307692307692 33.3333333333333  C 28.8141025641026 33.3333333333333  28.4535256410256 33.4982638888889  28.1490384615385 33.828125  C 27.8445512820513 34.1579861111111  27.6923076923077 34.5486111111111  27.6923076923077 35  C 27.6923076923077 35.4513888888889  27.8445512820513 35.8420138888889  28.1490384615385 36.171875  C 28.4535256410256 36.5017361111111  28.8141025641026 36.6666666666667  29.2307692307692 36.6666666666667  C 29.6474358974359 36.6666666666667  30.0080128205128 36.5017361111111  30.3125 36.171875  Z M 36.4663461538462 36.171875  C 36.7708333333333 35.8420138888889  36.9230769230769 35.4513888888889  36.9230769230769 35  C 36.9230769230769 34.5486111111111  36.7708333333333 34.1579861111111  36.4663461538462 33.828125  C 36.161858974359 33.4982638888889  35.8012820512821 33.3333333333333  35.3846153846154 33.3333333333333  C 34.9679487179487 33.3333333333333  34.6073717948718 33.4982638888889  34.3028846153846 33.828125  C 33.9983974358974 34.1579861111111  33.8461538461538 34.5486111111111  33.8461538461538 35  C 33.8461538461538 35.4513888888889  33.9983974358974 35.8420138888889  34.3028846153846 36.171875  C 34.6073717948718 36.5017361111111  34.9679487179487 36.6666666666667  35.3846153846154 36.6666666666667  C 35.8012820512821 36.6666666666667  36.161858974359 36.5017361111111  36.4663461538462 36.171875  Z M 39.3269230769231 27.3958333333333  C 39.775641025641 27.8819444444444  40 28.4722222222222  40 29.1666666666667  L 40 37.5  C 40 38.1944444444444  39.775641025641 38.7847222222222  39.3269230769231 39.2708333333333  C 38.8782051282051 39.7569444444444  38.3333333333333 40  37.6923076923077 40  L 2.30769230769231 40  C 1.66666666666667 40  1.12179487179487 39.7569444444444  0.673076923076923 39.2708333333333  C 0.224358974358974 38.7847222222222  0 38.1944444444444  0 37.5  L 0 29.1666666666667  C 0 28.4722222222222  0.224358974358974 27.8819444444444  0.673076923076923 27.3958333333333  C 1.12179487179487 26.9097222222222  1.66666666666667 26.6666666666667  2.30769230769231 26  L 13.4855769230769 26  L 16.7307692307692 30.2083333333333  C 17.6602564102564 31.1805555555556  18.75 31.6666666666667  20 31.6666666666667  C 21.25 31.6666666666667  22.3397435897436 31.1805555555556  23.2692307692308 30.2083333333333  L 26.5384615384615 26  L 37.6923076923077 26  C 38.3333333333333 26.6666666666667  38.8782051282051 26.9097222222222  39.3269230769231 27.3958333333333  Z M 30.7692307692308 13.3333333333333  C 31.4423076923077 13.3333333333333  31.9150641025641 13.671875  32.1875 14.3489583333333  C 32.4599358974359 15.0607638888889  32.3477564102564 15.6684027777778  31.8509615384615 16.171875  L 21.0817307692308 27.8385416666667  C 20.7932692307692 28.1684027777778  20.4326923076923 28.3333333333333  20 28.3333333333333  C 19.5673076923077 28.3333333333333  19.2067307692308 28.1684027777778  18.9182692307692 27.8385416666667  L 8.14903846153846 16.171875  C 7.65224358974359 15.6684027777778  7.5400641025641 15.0607638888889  7.8125 14.3489583333333  C 8.0849358974359 13.671875  8.55769230769231 13.3333333333333  9.23076923076923 13.3333333333333  L 16 13.3333333333333  L 16 1.66666666666667  C 15.3846153846154 1.21527777777777  15.536858974359 0.824652777777772  15.8413461538462 0.494791666666665  C 16.1458333333333 0.164930555555558  16.5064102564103 0  16.9230769230769 0  L 23.0769230769231 0  C 23.4935897435897 0  23.8541666666667 0.164930555555558  24.1586538461538 0.494791666666665  C 24.463141025641 0.824652777777772  24.6153846153846 1.21527777777777  24 1.66666666666667  L 24 13.3333333333333  L 30.7692307692308 13.3333333333333  Z " fill-rule="nonzero" fill="#f7f7f8" stroke="none" transform="matrix(1 0 0 1 1241 503 )" />
  </g>
</svg>