﻿<?xml version="1.0" encoding="utf-8"?>
<svg version="1.1" xmlns:xlink="http://www.w3.org/1999/xlink" width="300px" height="296px" xmlns="http://www.w3.org/2000/svg">
  <g transform="matrix(1 0 0 1 -118 -285 )">
    <path d="M 118 285  L 418 285  L 418 581  L 118 581  L 118 285  " fill-rule="nonzero" fill="#cccccc" stroke="none" />
    <path d="M 139 306  L 397 306  L 397 560  L 139 560  L 139 306  " fill-rule="nonzero" fill="#ffffff" stroke="none" />
    <path d="M 296.2 373.8  C 283.768 373.8  274 364.032  274 351.6  C 274 339.168  283.768 329.4  296.2 329.4  C 308.632 329.4  318.4 339.168  318.4 351.6  C 318.4 364.032  308.632 373.8  296.2 373.8  " fill-rule="nonzero" fill="#cccccc" stroke="none" />
    <path d="M 147 553  L 147 421.55  L 207.75 361.8  L 292.8 411.512  L 341.4 397.65  L 390 411.512  L 390 553  L 147 553  " fill-rule="nonzero" fill="#169bd5" stroke="none" />
  </g>
</svg>