﻿<?xml version="1.0" encoding="utf-8"?>
<svg version="1.1" xmlns:xlink="http://www.w3.org/1999/xlink" width="794px" height="787px" xmlns="http://www.w3.org/2000/svg">
  <g transform="matrix(1 0 0 1 -2563 9 )">
    <path d="M 2563 -9  L 3357 -9  L 3357 778  L 2563 778  L 2563 -9  " fill-rule="nonzero" fill="#cccccc" stroke="none" />
    <path d="M 2618 46  L 3302 46  L 3302 723  L 2618 723  L 2618 46  " fill-rule="nonzero" fill="#ffffff" stroke="none" />
    <path d="M 3034.905 227.1  C 3001.851 227.1  2975.88 201.129  2975.88 168.075  C 2975.88 135.021  3001.851 109.05  3034.905 109.05  C 3067.959 109.05  3093.93 135.021  3093.93 168.075  C 3093.93 201.129  3067.959 227.1  3034.905 227.1  " fill-rule="nonzero" fill="#cccccc" stroke="none" />
    <path d="M 2638 704  L 2638 353.1  L 2799.25 193.6  L 3025 324.574811083123  L 3154 289.3  L 3283 324.574811083123  L 3283 704  L 2638 704  " fill-rule="nonzero" fill="#169bd5" stroke="none" />
  </g>
</svg>