﻿<?xml version="1.0" encoding="utf-8"?>
<svg version="1.1" xmlns:xlink="http://www.w3.org/1999/xlink" width="794px" height="787px" xmlns="http://www.w3.org/2000/svg">
  <g transform="matrix(1 0 0 1 -566 -97 )">
    <path d="M 566 97  L 1360 97  L 1360 884  L 566 884  L 566 97  " fill-rule="nonzero" fill="#cccccc" stroke="none" />
    <path d="M 621 152  L 1305 152  L 1305 829  L 621 829  L 621 152  " fill-rule="nonzero" fill="#ffffff" stroke="none" />
    <path d="M 1037.905 333.1  C 1004.851 333.1  978.88 307.129  978.88 274.075  C 978.88 241.021  1004.851 215.05  1037.905 215.05  C 1070.959 215.05  1096.93 241.021  1096.93 274.075  C 1096.93 307.129  1070.959 333.1  1037.905 333.1  " fill-rule="nonzero" fill="#cccccc" stroke="none" />
    <path d="M 641 810  L 641 459.1  L 802.25 299.6  L 1028 430.574811083123  L 1157 395.3  L 1286 430.574811083123  L 1286 810  L 641 810  " fill-rule="nonzero" fill="#169bd5" stroke="none" />
  </g>
</svg>