﻿<?xml version="1.0" encoding="utf-8"?>
<svg version="1.1" xmlns:xlink="http://www.w3.org/1999/xlink" width="284px" height="280px" xmlns="http://www.w3.org/2000/svg">
  <g transform="matrix(1 0 0 1 -45 -162 )">
    <path d="M 45 162  L 329 162  L 329 442  L 45 442  L 45 162  " fill-rule="nonzero" fill="#cccccc" stroke="none" />
    <path d="M 65 182  L 309 182  L 309 422  L 65 422  L 65 182  " fill-rule="nonzero" fill="#ffffff" stroke="none" />
    <path d="M 213.68 246  C 201.92 246  192.68 236.76  192.68 225  C 192.68 213.24  201.92 204  213.68 204  C 225.44 204  234.68 213.24  234.68 225  C 234.68 236.76  225.44 246  213.68 246  " fill-rule="nonzero" fill="#cccccc" stroke="none" />
    <path d="M 72 415  L 72 290.7  L 129.5 234.2  L 210 281.30985915493  L 256 268.1  L 302 281.30985915493  L 302 415  L 72 415  " fill-rule="nonzero" fill="#169bd5" stroke="none" />
  </g>
</svg>