﻿<?xml version="1.0" encoding="utf-8"?>
<svg version="1.1" xmlns:xlink="http://www.w3.org/1999/xlink" width="281px" height="278px" xmlns="http://www.w3.org/2000/svg">
  <g transform="matrix(1 0 0 1 -48 -1012 )">
    <path d="M 48 1012  L 329 1012  L 329 1290  L 48 1290  L 48 1012  " fill-rule="nonzero" fill="#cccccc" stroke="none" />
    <path d="M 67 1031  L 310 1031  L 310 1271  L 67 1271  L 67 1031  " fill-rule="nonzero" fill="#ffffff" stroke="none" />
    <path d="M 214.97 1095.4  C 203.294 1095.4  194.12 1086.226  194.12 1074.55  C 194.12 1062.874  203.294 1053.7  214.97 1053.7  C 226.646 1053.7  235.82 1062.874  235.82 1074.55  C 235.82 1086.226  226.646 1095.4  214.97 1095.4  " fill-rule="nonzero" fill="#cccccc" stroke="none" />
    <path d="M 74 1264  L 74 1139.7  L 131.25 1083.2  L 211.4 1129.84768683274  L 257.2 1117.1  L 303 1129.84768683274  L 303 1264  L 74 1264  " fill-rule="nonzero" fill="#169bd5" stroke="none" />
  </g>
</svg>