﻿<?xml version="1.0" encoding="utf-8"?>
<svg version="1.1" xmlns:xlink="http://www.w3.org/1999/xlink" width="794px" height="787px" xmlns="http://www.w3.org/2000/svg">
  <g transform="matrix(1 0 0 1 -563 -97 )">
    <path d="M 563 97  L 1357 97  L 1357 884  L 563 884  L 563 97  " fill-rule="nonzero" fill="#cccccc" stroke="none" />
    <path d="M 618 152  L 1302 152  L 1302 829  L 618 829  L 618 152  " fill-rule="nonzero" fill="#ffffff" stroke="none" />
    <path d="M 1034.905 333.1  C 1001.851 333.1  975.88 307.129  975.88 274.075  C 975.88 241.021  1001.851 215.05  1034.905 215.05  C 1067.959 215.05  1093.93 241.021  1093.93 274.075  C 1093.93 307.129  1067.959 333.1  1034.905 333.1  " fill-rule="nonzero" fill="#cccccc" stroke="none" />
    <path d="M 638 810  L 638 459.1  L 799.25 299.6  L 1025 430.574811083123  L 1154 395.3  L 1283 430.574811083123  L 1283 810  L 638 810  " fill-rule="nonzero" fill="#169bd5" stroke="none" />
  </g>
</svg>