﻿<?xml version="1.0" encoding="utf-8"?>
<svg version="1.1" xmlns:xlink="http://www.w3.org/1999/xlink" width="126px" height="157px" xmlns="http://www.w3.org/2000/svg">
  <g transform="matrix(1 0 0 1 -18 -77 )">
    <path d="M 18 77  L 144 77  L 144 234  L 18 234  L 18 77  " fill-rule="nonzero" fill="#cccccc" stroke="none" />
    <path d="M 27 86  L 135 86  L 135 225  L 27 225  L 27 86  " fill-rule="nonzero" fill="#ffffff" stroke="none" />
    <path d="M 92.97 119.45  C 87.678 119.45  83.52 115.292  83.52 110  C 83.52 104.708  87.678 100.55  92.97 100.55  C 98.262 100.55  102.42 104.708  102.42 110  C 102.42 115.292  98.262 119.45  92.97 119.45  " fill-rule="nonzero" fill="#cccccc" stroke="none" />
    <path d="M 30 222  L 30 148.85  L 55.5 115.6  L 91.2 142.2  L 111.6 135.55  L 132 142.2  L 132 222  L 30 222  " fill-rule="nonzero" fill="#169bd5" stroke="none" />
  </g>
</svg>