﻿<?xml version="1.0" encoding="utf-8"?>
<svg version="1.1" xmlns:xlink="http://www.w3.org/1999/xlink" width="109px" height="114px" xmlns="http://www.w3.org/2000/svg">
  <g transform="matrix(1 0 0 1 -23 -188 )">
    <path d="M 23 188  L 132 188  L 132 302  L 23 302  L 23 188  " fill-rule="nonzero" fill="#cccccc" stroke="none" />
    <path d="M 31 196  L 124 196  L 124 294  L 31 294  L 31 196  " fill-rule="nonzero" fill="#ffffff" stroke="none" />
    <path d="M 87.855 221.45  C 83.277 221.45  79.68 217.853  79.68 213.275  C 79.68 208.697  83.277 205.1  87.855 205.1  C 92.433 205.1  96.03 208.697  96.03 213.275  C 96.03 217.853  92.433 221.45  87.855 221.45  " fill-rule="nonzero" fill="#cccccc" stroke="none" />
    <path d="M 34 292  L 34 240.85  L 56 217.6  L 86.8 236.2  L 104.4 231.55  L 122 236.2  L 122 292  L 34 292  " fill-rule="nonzero" fill="#169bd5" stroke="none" />
  </g>
</svg>