﻿<?xml version="1.0" encoding="utf-8"?>
<svg version="1.1" xmlns:xlink="http://www.w3.org/1999/xlink" width="10px" height="196px" preserveAspectRatio="xMidYMin meet" viewBox="456 125  8 196" xmlns="http://www.w3.org/2000/svg">
  <path d="M 419 316.5  L 460.5 316.5  L 460.5 130.5  L 511.5 130.5  " stroke-width="1" stroke="#333333" fill="none" />
  <path d="M 510.5 136.8  L 516.5 130.5  L 510.5 124.2  L 510.5 136.8  Z " fill-rule="nonzero" fill="#333333" stroke="none" />
</svg>