﻿<?xml version="1.0" encoding="utf-8"?>
<svg version="1.1" xmlns:xlink="http://www.w3.org/1999/xlink" width="65px" height="10px" preserveAspectRatio="xMinYMid meet" viewBox="1425 298  65 8" xmlns="http://www.w3.org/2000/svg">
  <path d="M 1389 469.5  L 1430.5 469.5  L 1430.5 302.5  L 1485.5 302.5  " stroke-width="1" stroke="#333333" fill="none" />
  <path d="M 1484.5 308.8  L 1490.5 302.5  L 1484.5 296.2  L 1484.5 308.8  Z " fill-rule="nonzero" fill="#333333" stroke="none" />
</svg>