﻿<?xml version="1.0" encoding="utf-8"?>
<svg version="1.1" xmlns:xlink="http://www.w3.org/1999/xlink" width="19px" height="18px" preserveAspectRatio="xMinYMid meet" viewBox="503 461  19 16" xmlns="http://www.w3.org/2000/svg">
  <path d="M 419 316.5  L 460.5 316.5  L 460.5 469.5  L 511.5 469.5  " stroke-width="1" stroke="#333333" fill="none" />
  <path d="M 510.5 475.8  L 516.5 469.5  L 510.5 463.2  L 510.5 475.8  Z " fill-rule="nonzero" fill="#333333" stroke="none" />
</svg>