﻿<?xml version="1.0" encoding="utf-8"?>
<svg version="1.1" xmlns:xlink="http://www.w3.org/1999/xlink" width="81px" height="10px" preserveAspectRatio="xMinYMid meet" viewBox="907 126  81 8" xmlns="http://www.w3.org/2000/svg">
  <path d="M 907 130.5  L 978.5 130.5  " stroke-width="1" stroke="#333333" fill="none" />
  <path d="M 977.5 136.8  L 983.5 130.5  L 977.5 124.2  L 977.5 136.8  Z " fill-rule="nonzero" fill="#333333" stroke="none" />
</svg>