﻿<?xml version="1.0" encoding="utf-8"?>
<svg version="1.1" xmlns:xlink="http://www.w3.org/1999/xlink" width="305px" height="301px" xmlns="http://www.w3.org/2000/svg">
  <g transform="matrix(1 0 0 1 -33 -146 )">
    <path d="M 33 146  L 338 146  L 338 447  L 33 447  L 33 146  " fill-rule="nonzero" fill="#cccccc" stroke="none" />
    <path d="M 54 167  L 317 167  L 317 426  L 54 426  L 54 167  " fill-rule="nonzero" fill="#ffffff" stroke="none" />
    <path d="M 214.175 236.3  C 201.533 236.3  191.6 226.367  191.6 213.725  C 191.6 201.083  201.533 191.15  214.175 191.15  C 226.817 191.15  236.75 201.083  236.75 213.725  C 236.75 226.367  226.817 236.3  214.175 236.3  " fill-rule="nonzero" fill="#cccccc" stroke="none" />
    <path d="M 62 419  L 62 284.8  L 124 223.8  L 210.8 274.52  L 260.4 260.4  L 310 274.52  L 310 419  L 62 419  " fill-rule="nonzero" fill="#169bd5" stroke="none" />
  </g>
</svg>