﻿<?xml version="1.0" encoding="utf-8"?>
<svg version="1.1" xmlns:xlink="http://www.w3.org/1999/xlink" width="768px" height="719px" xmlns="http://www.w3.org/2000/svg">
  <g transform="matrix(1 0 0 1 -576 -187 )">
    <path d="M 576 187  L 1344 187  L 1344 906  L 576 906  L 576 187  " fill-rule="nonzero" fill="#cccccc" stroke="none" />
    <path d="M 626 237  L 1294 237  L 1294 856  L 626 856  L 626 237  " fill-rule="nonzero" fill="#ffffff" stroke="none" />
    <path d="M 1029.285 402.7  C 999.087 402.7  975.36 378.973  975.36 348.775  C 975.36 318.577  999.087 294.85  1029.285 294.85  C 1059.483 294.85  1083.21 318.577  1083.21 348.775  C 1083.21 378.973  1059.483 402.7  1029.285 402.7  " fill-rule="nonzero" fill="#cccccc" stroke="none" />
    <path d="M 644 838  L 644 517.35  L 802 371.6  L 1023.2 510.51796875  L 1149.6 459.05  L 1276 510.51796875  L 1276 838  L 644 838  " fill-rule="nonzero" fill="#169bd5" stroke="none" />
  </g>
</svg>