﻿<?xml version="1.0" encoding="utf-8"?>
<svg version="1.1" xmlns:xlink="http://www.w3.org/1999/xlink" width="768px" height="719px" xmlns="http://www.w3.org/2000/svg">
  <g transform="matrix(1 0 0 1 -596 -146 )">
    <path d="M 596 146  L 1364 146  L 1364 865  L 596 865  L 596 146  " fill-rule="nonzero" fill="#cccccc" stroke="none" />
    <path d="M 646 196  L 1314 196  L 1314 815  L 646 815  L 646 196  " fill-rule="nonzero" fill="#ffffff" stroke="none" />
    <path d="M 1049.285 361.7  C 1019.087 361.7  995.36 337.973  995.36 307.775  C 995.36 277.577  1019.087 253.85  1049.285 253.85  C 1079.483 253.85  1103.21 277.577  1103.21 307.775  C 1103.21 337.973  1079.483 361.7  1049.285 361.7  " fill-rule="nonzero" fill="#cccccc" stroke="none" />
    <path d="M 664 797  L 664 476.35  L 822 330.6  L 1043.2 469.51796875  L 1169.6 418.05  L 1296 469.51796875  L 1296 797  L 664 797  " fill-rule="nonzero" fill="#169bd5" stroke="none" />
  </g>
</svg>