﻿<?xml version="1.0" encoding="utf-8"?>
<svg version="1.1" xmlns:xlink="http://www.w3.org/1999/xlink" width="768px" height="719px" xmlns="http://www.w3.org/2000/svg">
  <g transform="matrix(1 0 0 1 -576 -126 )">
    <path d="M 576 126  L 1344 126  L 1344 845  L 576 845  L 576 126  " fill-rule="nonzero" fill="#cccccc" stroke="none" />
    <path d="M 626 176  L 1294 176  L 1294 795  L 626 795  L 626 176  " fill-rule="nonzero" fill="#ffffff" stroke="none" />
    <path d="M 1029.285 341.7  C 999.087 341.7  975.36 317.973  975.36 287.775  C 975.36 257.577  999.087 233.85  1029.285 233.85  C 1059.483 233.85  1083.21 257.577  1083.21 287.775  C 1083.21 317.973  1059.483 341.7  1029.285 341.7  " fill-rule="nonzero" fill="#cccccc" stroke="none" />
    <path d="M 644 777  L 644 456.35  L 802 310.6  L 1023.2 449.51796875  L 1149.6 398.05  L 1276 449.51796875  L 1276 777  L 644 777  " fill-rule="nonzero" fill="#169bd5" stroke="none" />
  </g>
</svg>