﻿<?xml version="1.0" encoding="utf-8"?>
<svg version="1.1" xmlns:xlink="http://www.w3.org/1999/xlink" width="71px" height="71px" xmlns="http://www.w3.org/2000/svg">
  <defs>
    <mask fill="white" id="clip56">
      <path d="M 155 216  C 150.56 216  147 212.44  147 208  L 147 153  C 147 148.56  150.56 145  155 145  L 210 145  C 214.44 145  218 148.56  218 153  L 218 208  C 218 212.44  214.44 216  210 216  " fill-rule="evenodd" />
    </mask>
  </defs>
  <g transform="matrix(1 0 0 1 -147 -145 )">
    <path d="M 147 145  L 218 145  L 218 216  L 147 216  L 147 145  " fill-rule="nonzero" fill="#cccccc" stroke="none" mask="url(#clip56)" />
    <path d="M 152 150  L 213 150  L 213 211  L 152 211  L 152 150  " fill-rule="nonzero" fill="#ffffff" stroke="none" mask="url(#clip56)" />
    <path d="M 189.245 166.3  C 186.263 166.3  183.92 163.957  183.92 160.975  C 183.92 157.993  186.263 155.65  189.245 155.65  C 192.227 155.65  194.57 157.993  194.57 160.975  C 194.57 163.957  192.227 166.3  189.245 166.3  " fill-rule="nonzero" fill="#cccccc" stroke="none" mask="url(#clip56)" />
    <path d="M 154 209  L 154 177.65  L 168.25 163.4  L 188.2 174.8  L 199.6 171.95  L 211 174.8  L 211 209  L 154 209  " fill-rule="nonzero" fill="#169bd5" stroke="none" mask="url(#clip56)" />
  </g>
</svg>