﻿<?xml version="1.0" encoding="utf-8"?>
<svg version="1.1" xmlns:xlink="http://www.w3.org/1999/xlink" width="95px" height="10px" preserveAspectRatio="xMinYMid meet" viewBox="466 841  95 8" xmlns="http://www.w3.org/2000/svg">
  <path d="M 466 845.5  L 551.5 845.5  " stroke-width="1" stroke="#333333" fill="none" />
  <path d="M 550.5 851.8  L 556.5 845.5  L 550.5 839.2  L 550.5 851.8  Z " fill-rule="nonzero" fill="#333333" stroke="none" />
</svg>