﻿<?xml version="1.0" encoding="utf-8"?>
<svg version="1.1" xmlns:xlink="http://www.w3.org/1999/xlink" width="88px" height="10px" preserveAspectRatio="xMinYMid meet" viewBox="1079 756  88 8" xmlns="http://www.w3.org/2000/svg">
  <path d="M 1001 845.5  L 1084.5 845.5  L 1084.5 760.5  L 1162.5 760.5  " stroke-width="1" stroke="#333333" fill="none" />
  <path d="M 1161.5 766.8  L 1167.5 760.5  L 1161.5 754.2  L 1161.5 766.8  Z " fill-rule="nonzero" fill="#333333" stroke="none" />
</svg>