﻿<?xml version="1.0" encoding="utf-8"?>
<svg version="1.1" xmlns:xlink="http://www.w3.org/1999/xlink" width="19px" height="18px" preserveAspectRatio="xMinYMid meet" viewBox="1898 162  19 16" xmlns="http://www.w3.org/2000/svg">
  <path d="M 1543 308.5  L 1727.5 308.5  L 1727.5 170.5  L 1906.5 170.5  " stroke-width="1" stroke="#333333" fill="none" />
  <path d="M 1905.5 176.8  L 1911.5 170.5  L 1905.5 164.2  L 1905.5 176.8  Z " fill-rule="nonzero" fill="#333333" stroke="none" />
</svg>