﻿<?xml version="1.0" encoding="utf-8"?>
<svg version="1.1" xmlns:xlink="http://www.w3.org/1999/xlink" width="19px" height="18px" preserveAspectRatio="xMinYMid meet" viewBox="1154 1029  19 16" xmlns="http://www.w3.org/2000/svg">
  <path d="M 1001 845.5  L 1084.5 845.5  L 1084.5 1037.5  L 1162.5 1037.5  " stroke-width="1" stroke="#333333" fill="none" />
  <path d="M 1161.5 1043.8  L 1167.5 1037.5  L 1161.5 1031.2  L 1161.5 1043.8  Z " fill-rule="nonzero" fill="#333333" stroke="none" />
</svg>