﻿<?xml version="1.0" encoding="utf-8"?>
<svg version="1.1" xmlns:xlink="http://www.w3.org/1999/xlink" width="19px" height="18px" preserveAspectRatio="xMinYMid meet" viewBox="1088 300  19 16" xmlns="http://www.w3.org/2000/svg">
  <path d="M 1001 308.5  L 1096.5 308.5  " stroke-width="1" stroke="#333333" fill="none" />
  <path d="M 1095.5 314.8  L 1101.5 308.5  L 1095.5 302.2  L 1095.5 314.8  Z " fill-rule="nonzero" fill="#333333" stroke="none" />
</svg>