﻿<?xml version="1.0" encoding="utf-8"?>
<svg version="1.1" xmlns:xlink="http://www.w3.org/1999/xlink" width="189px" height="10px" preserveAspectRatio="xMinYMid meet" viewBox="1543 304  189 8" xmlns="http://www.w3.org/2000/svg">
  <path d="M 1543 308.5  L 1727.5 308.5  L 1727.5 447.5  L 1906.5 447.5  " stroke-width="1" stroke="#333333" fill="none" />
  <path d="M 1905.5 453.8  L 1911.5 447.5  L 1905.5 441.2  L 1905.5 453.8  Z " fill-rule="nonzero" fill="#333333" stroke="none" />
</svg>