﻿<?xml version="1.0" encoding="utf-8"?>
<svg version="1.1" xmlns:xlink="http://www.w3.org/1999/xlink" width="19px" height="18px" preserveAspectRatio="xMinYMid meet" viewBox="543 300  19 16" xmlns="http://www.w3.org/2000/svg">
  <path d="M 466 308.5  L 551.5 308.5  " stroke-width="1" stroke="#333333" fill="none" />
  <path d="M 550.5 314.8  L 556.5 308.5  L 550.5 302.2  L 550.5 314.8  Z " fill-rule="nonzero" fill="#333333" stroke="none" />
</svg>