﻿<?xml version="1.0" encoding="utf-8"?>
<svg version="1.1" xmlns:xlink="http://www.w3.org/1999/xlink" width="10px" height="65px" preserveAspectRatio="xMidYMin meet" viewBox="193 2297  8 65" xmlns="http://www.w3.org/2000/svg">
  <path d="M 197.5 2297  L 197.5 2353  " stroke-width="1" stroke="#333333" fill="none" />
  <path d="M 191.2 2352  L 197.5 2358  L 203.8 2352  L 191.2 2352  Z " fill-rule="nonzero" fill="#333333" stroke="none" />
</svg>