﻿<?xml version="1.0" encoding="utf-8"?>
<svg version="1.1" xmlns:xlink="http://www.w3.org/1999/xlink" width="12px" height="12px" viewBox="178 2717  12 12" xmlns="http://www.w3.org/2000/svg">
  <path d="M 178.5 2717.5  L 189.5 2717.5  L 189.5 2728.5  L 178.5 2728.5  L 178.5 2717.5  Z " fill-rule="nonzero" fill="#f0f0f0" stroke="none" />
  <path d="M 178.5 2717.5  L 189.5 2717.5  L 189.5 2728.5  L 178.5 2728.5  L 178.5 2717.5  Z " stroke-width="1" stroke="#797979" fill="none" />
  <path d="M 180.571428571429 2723  L 183.142857142857 2725.57142857143  " stroke-width="2.57142857142857" stroke="#797979" fill="none" />
  <path d="M 183.142857142857 2725.57142857143  L 187.428571428571 2719.57142857143  " stroke-width="2.57142857142857" stroke="#797979" fill="none" />
</svg>