﻿<?xml version="1.0" encoding="utf-8"?>
<svg version="1.1" xmlns:xlink="http://www.w3.org/1999/xlink" width="158px" height="74px" xmlns="http://www.w3.org/2000/svg">
  <defs>
    <linearGradient gradientUnits="userSpaceOnUse" x1="79" y1="0" x2="79" y2="74" id="LinearGradient102">
      <stop id="Stop103" stop-color="#f0f0f0" offset="0" />
      <stop id="Stop104" stop-color="#f0f0f0" offset="1" />
    </linearGradient>
    <mask fill="white" id="clip105">
      <path d="M 21.4757281553398 37  C 21.5814685389977 16.5181305807956  0.766990291262136 0.303278688524597  0.766990291262136 0.303278688524597  L 135.757281553398 0.303278688524597  C 135.757281553398 0.303278688524597  156.57196491798 16.5189612707523  156.466019417476 37  C 156.361119371382 57.2789348912338  135.757281553398 73.0901639344262  135.757281553398 73.0901639344262  L 0.766990291262136 73.0901639344262  C 0.766990291262136 73.0901639344262  21.3710397228999 57.2781068950298  21.4757281553398 37  Z " fill-rule="evenodd" />
    </mask>
  </defs>
  <g transform="matrix(1 0 0 1 -52 0 )">
    <path d="M 21.4757281553398 37  C 21.5814685389977 16.5181305807956  0.766990291262136 0.303278688524597  0.766990291262136 0.303278688524597  L 135.757281553398 0.303278688524597  C 135.757281553398 0.303278688524597  156.57196491798 16.5189612707523  156.466019417476 37  C 156.361119371382 57.2789348912338  135.757281553398 73.0901639344262  135.757281553398 73.0901639344262  L 0.766990291262136 73.0901639344262  C 0.766990291262136 73.0901639344262  21.3710397228999 57.2781068950298  21.4757281553398 37  Z " fill-rule="nonzero" fill="url(#LinearGradient102)" stroke="none" transform="matrix(1 0 0 1 52 0 )" />
    <path d="M 21.4757281553398 37  C 21.5814685389977 16.5181305807956  0.766990291262136 0.303278688524597  0.766990291262136 0.303278688524597  L 135.757281553398 0.303278688524597  C 135.757281553398 0.303278688524597  156.57196491798 16.5189612707523  156.466019417476 37  C 156.361119371382 57.2789348912338  135.757281553398 73.0901639344262  135.757281553398 73.0901639344262  L 0.766990291262136 73.0901639344262  C 0.766990291262136 73.0901639344262  21.3710397228999 57.2781068950298  21.4757281553398 37  Z " stroke-width="2" stroke="#797979" fill="none" transform="matrix(1 0 0 1 52 0 )" mask="url(#clip105)" />
  </g>
</svg>