﻿<?xml version="1.0" encoding="utf-8"?>
<svg version="1.1" xmlns:xlink="http://www.w3.org/1999/xlink" width="25px" height="25px" xmlns="http://www.w3.org/2000/svg">
  <g transform="matrix(1 0 0 1 -1410 -310 )">
    <path d="M 23.8314447592068 0  C 24.3271954674221 0  24.6754013220019 0.230823863636365  24.8760623229462 0.692471590909091  C 25.0767233238905 1.17779356060606  24.9940982058546 1.5920928030303  24.6281869688385 1.93536931818182  L 15.899433427762 10.6889204545455  L 15.899433427762 23.8636363636364  C 15.899433427762 24.3607954545455  15.6692634560907 24.709990530303  15.2089235127479 24.9112215909091  C 15.055476864967 24.9704071969697  14.9079320113314 25  14.7662889518414 25  C 14.4475920679887 25  14.1820113314448 24.8875473484849  13.9695467422096 24.6626420454545  L 9.43696883852691 20.1171875  C 9.21270066100094 19.8922821969697  9.10056657223796 19.625946969697  9.10056657223796 19.3181818181818  L 9.10056657223796 10.6889204545455  L 0.371813031161473 1.93536931818182  C 0.0059017941454202 1.5920928030303  -0.0767233238904627 1.17779356060606  0.123937677053824 0.692471590909091  C 0.324598677998111 0.230823863636365  0.672804532577904 0  1.1685552407932 0  L 23.8314447592068 0  Z " fill-rule="nonzero" fill="#000000" stroke="none" transform="matrix(1 0 0 1 1410 310 )" />
  </g>
</svg>