﻿<?xml version="1.0" encoding="utf-8"?>
<svg version="1.1" xmlns:xlink="http://www.w3.org/1999/xlink" width="200px" height="40px" xmlns="http://www.w3.org/2000/svg">
  <g transform="matrix(1 0 0 1 -242 -221 )">
    <path d="M 0 35  L 0 5  C 0 2.19999999999999  2.19999999999999 0  5 0  L 161.030303030303 0  L 195 0  C 197.8 0  200 2.19999999999999  200 5  L 200 35  C 200 37.8  197.8 40  195 40  L 5 40  C 2.19999999999999 40  0 37.8  0 35  Z " fill-rule="nonzero" fill="#169bd5" stroke="none" transform="matrix(1 0 0 1 242 221 )" />
  </g>
</svg>