﻿<?xml version="1.0" encoding="utf-8"?>
<svg version="1.1" xmlns:xlink="http://www.w3.org/1999/xlink" width="25px" height="25px" viewBox="743 782  25 25" xmlns="http://www.w3.org/2000/svg">
  <path d="M 743.5 782.5  L 767.5 782.5  L 767.5 806.5  L 743.5 806.5  L 743.5 782.5  Z " fill-rule="nonzero" fill="#ffffff" stroke="none" />
  <path d="M 743.5 782.5  L 767.5 782.5  L 767.5 806.5  L 743.5 806.5  L 743.5 782.5  Z " stroke-width="1" stroke="#797979" fill="none" />
  <path d="M 748.357142857143 794.5  L 753.714285714286 799.857142857143  " stroke-width="5.35714285714286" stroke="#797979" fill="none" />
  <path d="M 753.714285714286 799.857142857143  L 762.642857142857 787.357142857143  " stroke-width="5.35714285714286" stroke="#797979" fill="none" />
</svg>