﻿<?xml version="1.0" encoding="utf-8"?>
<svg version="1.1" xmlns:xlink="http://www.w3.org/1999/xlink" width="4px" height="6px" xmlns="http://www.w3.org/2000/svg">
  <g transform="matrix(1 0 0 1 -99 -284 )">
    <path d="M 100.5 285  L 100.5 288  " stroke-width="2" stroke="#009cd9" fill="none" />
  </g>
</svg>