﻿<?xml version="1.0" encoding="utf-8"?>
<svg version="1.1" xmlns:xlink="http://www.w3.org/1999/xlink" width="13px" height="13px" xmlns="http://www.w3.org/2000/svg">
  <g>
    <path d="M 6.5 0  C 10.14 0  13 2.86  13 6.5  C 13 10.14  10.14 13  6.5 13  C 2.86 13  0 10.14  0 6.5  C 0 2.86  2.86 0  6.5 0  Z " fill-rule="nonzero" fill="#ffffff" stroke="none" />
    <path d="M 6.5 0.5  C 9.86 0.5  12.5 3.14  12.5 6.5  C 12.5 9.86  9.86 12.5  6.5 12.5  C 3.14 12.5  0.5 9.86  0.5 6.5  C 0.5 3.14  3.14 0.5  6.5 0.5  Z " stroke-width="1" stroke="#333333" fill="none" />
  </g>
</svg>