﻿<?xml version="1.0" encoding="utf-8"?>
<svg version="1.1" xmlns:xlink="http://www.w3.org/1999/xlink" width="273px" height="2px" xmlns="http://www.w3.org/2000/svg">
  <g transform="matrix(1 0 0 1 -54 -144 )">
    <path d="M 54 145  L 327 145  " stroke-width="2" stroke="#8c8c8c" fill="none" />
  </g>
</svg>