﻿<?xml version="1.0" encoding="utf-8"?>
<svg version="1.1" xmlns:xlink="http://www.w3.org/1999/xlink" width="70px" height="30px" xmlns="http://www.w3.org/2000/svg">
  <defs>
    <linearGradient gradientUnits="userSpaceOnUse" x1="35" y1="0" x2="35" y2="30" id="LinearGradient1441">
      <stop id="Stop1442" stop-color="#ffffff" offset="0" />
      <stop id="Stop1443" stop-color="#f2f2f2" offset="0" />
      <stop id="Stop1444" stop-color="#e4e4e4" offset="1" />
      <stop id="Stop1445" stop-color="#ffffff" offset="1" />
    </linearGradient>
    <mask fill="white" id="clip1446">
      <path d="M 9.51456310679614 15  C 9.56141011221418 6.69653942464687  0.339805825242718 0.122950819672134  0.339805825242718 0.122950819672134  L 60.1456310679612 0.122950819672134  C 60.1456310679612 0.122950819672134  69.3673262294848 6.69687619084552  69.3203883495146 15  C 69.273913645549 23.2211898207705  60.1456310679612 29.6311475409836  60.1456310679612 29.6311475409836  L 0.339805825242718 29.6311475409836  C 0.339805825242718 29.6311475409836  9.46818215571515 23.2208541466337  9.51456310679614 15  Z " fill-rule="evenodd" />
    </mask>
  </defs>
  <g transform="matrix(1 0 0 1 -110 -79 )">
    <path d="M 9.51456310679614 15  C 9.56141011221418 6.69653942464687  0.339805825242718 0.122950819672134  0.339805825242718 0.122950819672134  L 60.1456310679612 0.122950819672134  C 60.1456310679612 0.122950819672134  69.3673262294848 6.69687619084552  69.3203883495146 15  C 69.273913645549 23.2211898207705  60.1456310679612 29.6311475409836  60.1456310679612 29.6311475409836  L 0.339805825242718 29.6311475409836  C 0.339805825242718 29.6311475409836  9.46818215571515 23.2208541466337  9.51456310679614 15  Z " fill-rule="nonzero" fill="url(#LinearGradient1441)" stroke="none" transform="matrix(1 0 0 1 110 79 )" />
    <path d="M 9.51456310679614 15  C 9.56141011221418 6.69653942464687  0.339805825242718 0.122950819672134  0.339805825242718 0.122950819672134  L 60.1456310679612 0.122950819672134  C 60.1456310679612 0.122950819672134  69.3673262294848 6.69687619084552  69.3203883495146 15  C 69.273913645549 23.2211898207705  60.1456310679612 29.6311475409836  60.1456310679612 29.6311475409836  L 0.339805825242718 29.6311475409836  C 0.339805825242718 29.6311475409836  9.46818215571515 23.2208541466337  9.51456310679614 15  Z " stroke-width="2" stroke="#797979" fill="none" transform="matrix(1 0 0 1 110 79 )" mask="url(#clip1446)" />
  </g>
</svg>