﻿<?xml version="1.0" encoding="utf-8"?>
<svg version="1.1" xmlns:xlink="http://www.w3.org/1999/xlink" width="22px" height="22px" xmlns="http://www.w3.org/2000/svg">
  <g transform="matrix(1 0 0 1 -25 -136 )">
    <path d="M 9.95442708333333 15.4544270833333  C 10.0403645833333 15.3684895833333  10.0833333333333 15.2586805555556  10.0833333333333 15.125  L 10.0833333333333 6.875  C 10.0833333333333 6.74131944444444  10.0403645833333 6.63151041666667  9.95442708333333 6.54557291666667  C 9.86848958333333 6.45963541666667  9.75868055555556 6.41666666666667  9.625 6.41666666666667  L 5.95833333333333 6.41666666666667  C 5.82465277777778 6.41666666666667  5.71484375 6.45963541666667  5.62890625 6.54557291666667  C 5.54296875 6.63151041666667  5.5 6.74131944444444  5.5 6.875  L 5.5 15.125  C 5.5 15.2586805555556  5.54296875 15.3684895833333  5.62890625 15.4544270833333  C 5.71484375 15.5403645833333  5.82465277777778 15.5833333333333  5.95833333333333 15.5833333333333  L 9.625 15.5833333333333  C 9.75868055555556 15.5833333333333  9.86848958333333 15.5403645833333  9.95442708333333 15.4544270833333  Z M 16.37109375 15.4544270833333  C 16.45703125 15.3684895833333  16.5 15.2586805555556  16.5 15.125  L 16.5 6.875  C 16.5 6.74131944444444  16.45703125 6.63151041666667  16.37109375 6.54557291666667  C 16.28515625 6.45963541666667  16.1753472222222 6.41666666666667  16.0416666666667 6.41666666666667  L 12.375 6.41666666666667  C 12.2413194444444 6.41666666666667  12.1315104166667 6.45963541666667  12.0455729166667 6.54557291666667  C 11.9596354166667 6.63151041666667  11.9166666666667 6.74131944444444  11.9166666666667 6.875  L 11.9166666666667 15.125  C 11.9166666666667 15.2586805555556  11.9596354166667 15.3684895833333  12.0455729166667 15.4544270833333  C 12.1315104166667 15.5403645833333  12.2413194444444 15.5833333333333  12.375 15.5833333333333  L 16.0416666666667 15.5833333333333  C 16.1753472222222 15.5833333333333  16.28515625 15.5403645833333  16.37109375 15.4544270833333  Z M 20.5247395833333 5.478515625  C 21.5082465277778 7.16384548611111  22 9.00434027777778  22 11  C 22 12.9956597222222  21.5082465277778 14.8361545138889  20.5247395833333 16.521484375  C 19.5412326388889 18.2068142361111  18.2068142361111 19.5412326388889  16.521484375 20.5247395833333  C 14.8361545138889 21.5082465277778  12.9956597222222 22  11 22  C 9.00434027777778 22  7.16384548611111 21.5082465277778  5.478515625 20.5247395833333  C 3.79318576388889 19.5412326388889  2.45876736111111 18.2068142361111  1.47526041666667 16.521484375  C 0.491753472222222 14.8361545138889  0 12.9956597222222  0 11  C 0 9.00434027777778  0.491753472222222 7.16384548611111  1.47526041666667 5.478515625  C 2.45876736111111 3.79318576388889  3.79318576388889 2.45876736111111  5.478515625 1.47526041666667  C 7.16384548611111 0.49175347222222  9.00434027777778 0  11 0  C 12.9956597222222 0  14.8361545138889 0.49175347222222  16.521484375 1.47526041666667  C 18.2068142361111 2.45876736111111  19.5412326388889 3.79318576388889  20.5247395833333 5.478515625  Z " fill-rule="nonzero" fill="#f0f0f0" stroke="none" transform="matrix(1 0 0 1 25 136 )" />
  </g>
</svg>