﻿<?xml version="1.0" encoding="utf-8"?>
<svg version="1.1" xmlns:xlink="http://www.w3.org/1999/xlink" width="42px" height="42px" xmlns="http://www.w3.org/2000/svg">
  <g transform="matrix(1 0 0 1 -161 -183 )">
    <path d="M 25.94921875 16.05078125  C 27.31640625 17.41796875  28 19.0677083333333  28 21  C 28 22.9322916666667  27.31640625 24.58203125  25.94921875 25.94921875  C 24.58203125 27.31640625  22.9322916666667 28  21 28  C 19.0677083333333 28  17.41796875 27.31640625  16.05078125 25.94921875  C 14.68359375 24.58203125  14 22.9322916666667  14 21  C 14 19.0677083333333  14.68359375 17.41796875  16.05078125 16.05078125  C 17.41796875 14.68359375  19.0677083333333 14  21 14  C 22.9322916666667 14  24.58203125 14.68359375  25.94921875 16.05078125  Z M 28.46484375 8.12109375  C 26.1861979166667 6.79036458333333  23.6979166666667 6.125  21 6.125  C 18.3020833333333 6.125  15.8138020833333 6.79036458333333  13.53515625 8.12109375  C 11.2565104166667 9.45182291666666  9.45182291666667 11.2565104166667  8.12109375 13.53515625  C 6.79036458333333 15.8138020833333  6.125 18.3020833333333  6.125 21  C 6.125 23.6979166666667  6.79036458333333 26.1861979166667  8.12109375 28.46484375  C 9.45182291666667 30.7434895833333  11.2565104166667 32.5481770833333  13.53515625 33.87890625  C 15.8138020833333 35.2096354166667  18.3020833333333 35.875  21 35.875  C 23.6979166666667 35.875  26.1861979166667 35.2096354166667  28.46484375 33.87890625  C 30.7434895833333 32.5481770833333  32.5481770833333 30.7434895833333  33.87890625 28.46484375  C 35.2096354166667 26.1861979166667  35.875 23.6979166666667  35.875 21  C 35.875 18.3020833333333  35.2096354166667 15.8138020833333  33.87890625 13.53515625  C 32.5481770833333 11.2565104166667  30.7434895833333 9.45182291666666  28.46484375 8.12109375  Z M 39.18359375 10.458984375  C 41.0611979166667 13.6764322916667  42 17.1901041666667  42 21  C 42 24.8098958333333  41.0611979166667 28.3235677083333  39.18359375 31.541015625  C 37.3059895833333 34.7584635416667  34.7584635416667 37.3059895833333  31.541015625 39.18359375  C 28.3235677083333 41.0611979166667  24.8098958333333 42  21 42  C 17.1901041666667 42  13.6764322916667 41.0611979166667  10.458984375 39.18359375  C 7.24153645833333 37.3059895833333  4.69401041666667 34.7584635416667  2.81640625 31.541015625  C 0.938802083333333 28.3235677083333  0 24.8098958333333  0 21  C 0 17.1901041666667  0.938802083333333 13.6764322916667  2.81640625 10.458984375  C 4.69401041666667 7.24153645833333  7.24153645833333 4.69401041666666  10.458984375 2.81640625  C 13.6764322916667 0.93880208333333  17.1901041666667 0  21 0  C 24.8098958333333 0  28.3235677083333 0.93880208333333  31.541015625 2.81640625  C 34.7584635416667 4.69401041666666  37.3059895833333 7.24153645833333  39.18359375 10.458984375  Z " fill-rule="nonzero" fill="#f0001d" stroke="none" transform="matrix(1 0 0 1 161 183 )" />
  </g>
</svg>