﻿<?xml version="1.0" encoding="utf-8"?>
<svg version="1.1" xmlns:xlink="http://www.w3.org/1999/xlink" width="128px" height="127px" xmlns="http://www.w3.org/2000/svg">
  <defs>
    <mask fill="white" id="clip1421">
      <path d="M 897 397  C 882.57 397  871 385.43  871 371  L 871 296  C 871 281.57  882.57 270  897 270  L 973 270  C 987.43 270  999 281.57  999 296  L 999 371  C 999 385.43  987.43 397  973 397  " fill-rule="evenodd" />
    </mask>
  </defs>
  <g transform="matrix(1 0 0 1 -871 -270 )">
    <path d="M 871 270  L 999 270  L 999 397  L 871 397  L 871 270  " fill-rule="nonzero" fill="#cccccc" stroke="none" mask="url(#clip1421)" />
    <path d="M 880 279  L 990 279  L 990 388  L 880 388  L 880 279  " fill-rule="nonzero" fill="#ffffff" stroke="none" mask="url(#clip1421)" />
    <path d="M 947.085 308.1  C 941.751 308.1  937.56 303.909  937.56 298.575  C 937.56 293.241  941.751 289.05  947.085 289.05  C 952.419 289.05  956.61 293.241  956.61 298.575  C 956.61 303.909  952.419 308.1  947.085 308.1  " fill-rule="nonzero" fill="#cccccc" stroke="none" mask="url(#clip1421)" />
    <path d="M 883 385  L 883 328.35  L 909 302.6  L 945.4 323.6828125  L 966.2 318.05  L 987 323.6828125  L 987 385  L 883 385  " fill-rule="nonzero" fill="#169bd5" stroke="none" mask="url(#clip1421)" />
  </g>
</svg>