﻿<?xml version="1.0" encoding="utf-8"?>
<svg version="1.1" xmlns:xlink="http://www.w3.org/1999/xlink" width="67px" height="62px" xmlns="http://www.w3.org/2000/svg">
  <g transform="matrix(1 0 0 1 -534 -175 )">
    <path d="M 534 175  L 601 175  L 601 237  L 534 237  L 534 175  " fill-rule="nonzero" fill="#cccccc" stroke="none" />
    <path d="M 538 179  L 597 179  L 597 233  L 538 233  L 538 179  " fill-rule="nonzero" fill="#ffffff" stroke="none" />
    <path d="M 573.49 193.6  C 570.886 193.6  568.84 191.554  568.84 188.95  C 568.84 186.346  570.886 184.3  573.49 184.3  C 576.094 184.3  578.14 186.346  578.14 188.95  C 578.14 191.554  576.094 193.6  573.49 193.6  " fill-rule="nonzero" fill="#cccccc" stroke="none" />
    <path d="M 540 232  L 540 203.95  L 554 191.2  L 573.6 203.683582089552  L 584.8 198.85  L 596 203.683582089552  L 596 232  L 540 232  " fill-rule="nonzero" fill="#169bd5" stroke="none" />
  </g>
</svg>