﻿<?xml version="1.0" encoding="utf-8"?>
<svg version="1.1" xmlns:xlink="http://www.w3.org/1999/xlink" width="820px" height="246px" xmlns="http://www.w3.org/2000/svg">
  <g transform="matrix(1 0 0 1 -513 -389 )">
    <path d="M 513 389  L 1333 389  L 1333 635  L 513 635  L 513 389  " fill-rule="nonzero" fill="#cccccc" stroke="none" />
    <path d="M 530 406  L 1316 406  L 1316 618  L 530 618  L 530 406  " fill-rule="nonzero" fill="#ffffff" stroke="none" />
    <path d="M 957.85 462.8  C 947.518 462.8  939.4 454.682  939.4 444.35  C 939.4 434.018  947.518 425.9  957.85 425.9  C 968.182 425.9  976.3 434.018  976.3 444.35  C 976.3 454.682  968.182 462.8  957.85 462.8  " fill-rule="nonzero" fill="#cccccc" stroke="none" />
    <path d="M 536 612  L 536 502  L 729.5 452  L 1000.4 576  L 1155.2 482  L 1310 576  L 1310 612  L 536 612  " fill-rule="nonzero" fill="#169bd5" stroke="none" />
  </g>
</svg>