﻿<?xml version="1.0" encoding="utf-8"?>
<svg version="1.1" xmlns:xlink="http://www.w3.org/1999/xlink" width="67px" height="62px" xmlns="http://www.w3.org/2000/svg">
  <g transform="matrix(1 0 0 1 -561 -235 )">
    <path d="M 561 235  L 628 235  L 628 297  L 561 297  L 561 235  " fill-rule="nonzero" fill="#cccccc" stroke="none" />
    <path d="M 565 239  L 624 239  L 624 293  L 565 293  L 565 239  " fill-rule="nonzero" fill="#ffffff" stroke="none" />
    <path d="M 600.49 253.6  C 597.886 253.6  595.84 251.554  595.84 248.95  C 595.84 246.346  597.886 244.3  600.49 244.3  C 603.094 244.3  605.14 246.346  605.14 248.95  C 605.14 251.554  603.094 253.6  600.49 253.6  " fill-rule="nonzero" fill="#cccccc" stroke="none" />
    <path d="M 567 292  L 567 263.95  L 581 251.2  L 600.6 263.683582089552  L 611.8 258.85  L 623 263.683582089552  L 623 292  L 567 292  " fill-rule="nonzero" fill="#169bd5" stroke="none" />
  </g>
</svg>